  @startuml doc-files/core05.1_image2.png
  participant ExtensionManager as ExtM
  participant "extension:Extension" as Extension
  participant "extension : ExtensionEmailConfiguration" as EEmailConfig

 
  ExtM -> Extension : extension = forName("csheets.ext.simple.ExtensionEmailConfiguration");
  

  ExtM -> Extension : extensionEmailConfig = (Extension)newInstance();

  activate Extension
  create EEmailConfig
  Extension -> EEmailConfig : new
  deactivate Extension
  ExtM -> EEmailConfig : name = getName();
  activate EEmailConfig
  deactivate EEmailConfig
  ExtM -> ExtM : extensionMap.put(name, extension)
  @enduml
