@startuml doc-files/crm01.3_CreateTagss.png

actor User
participant "SeeContactsListUI" as UI
participant "ContactController" as Controller
participant "Tag :t" as tag
participant "PersistenceContext" as Persistence
participant "AppSettings" as App
participant "RepositoryFactory" as RepFact
participant "TagRepository" as tagRep



User->UI: add tag

create Controller
UI->Controller : create()
UI->Controller : newTag(s, c)

create tag
Controller->tag : create(s)
Controller->tag : associateContact(c)

Controller->Persistence : repositories()

Persistence->App : instance()
Persistence->App : getRepositoryFactory()

create RepFact
Persistence->RepFact : create()

Controller->RepFact :tags()

create tagRep
RepFact->tagRep : create()
Controller->tagRep : newTag(t)

UI->User : sucess

@enduml