

@startuml doc-files/crm01.3_ContactsFromTag.png

actor User
participant "SeeContactsListUI" as UI
participant "ContactController" as Controller
participant "Tag :t" as tag
participant "PersistenceContext" as Persistence
participant "AppSettings" as App
participant "RepositoryFactory" as RepFact
participant "TagRepository" as tagRep



User->UI: search tag

create Controller
UI->Controller : create()
UI->Controller : lst=contactsTag()

Controller->Persistence : repositories()

Persistence->App : instance()
Persistence->App : getRepositoryFactory()

create RepFact
Persistence->RepFact : create()

Controller->RepFact :tags()

create tagRep
RepFact->tagRep : create()
Controller->tagRep : lst=allTags()

UI->User : sucess

@enduml