@startuml doc-files/ipc04_3_sdExportDB.png
actor User
participant "ui : ExportAction" as UI
participant "ctr : ExportDatabaseController" as CTR
participant "spt : SpreadSheetTable" as SPT
participant "jdbc : jdbcConnection" as JDBC
activate UI
UI -> User : tableName = requestTableName
UI -> User : Database Connection = requestDatabaseConnection
UI -> SPT : cells = getSelectedCells();
UI -> CTR : exportDatabase(cells, tableName, connection);
activate CTR
CTR -> JDBC : connect(connection);
CTR -> JDBC : createTable(tableName,cells);
CTR -> JDBC : insertValues(cells);
deactivate CTR
deactivate UI
@enduml