@startuml doc-files/IPC06_04_design.png
participant "sc : UIExtensionSendCells" as SC
participant "sca : SendCellsAction" as SCA
participant "st : SpreadSheetTable" as SpT
participant "NetworkManager (TBD)" as NET
activate SCA
SCA -> SpT : cells = getSelectedCells();
SCA -> SC : port = readPort();
SCA -> NET : sendUDPBroadCast(port, s);
SCA -> NET : listenResponses(port);
SC -> SCA : showInstances();
SCA -> SC : ip = selectInstance();
SCA -> NET : sendCellInformation(cells, ip);
deactivate SCA

@enduml