@startuml doc-files/core02_02_AnalysisSSD.png
actor User
participant System

User -> System : The user opens the application CSHEETS
System -> User : The system shows the graphic interface of CSHEETS
User -> System : The user hoovers the mouse pointer over a cell.
System ->User : If the cell contains comments, the system displays them in a tooltip with reference to the user that created them.

@enduml