@startuml doc-files/cmr01_2.SeeCompanyEventsSequenceDiagram.png
actor User
participant "UIExtensionContacts" as UI
participant "SeeContactList" as CLUI
participant "SeeCompanyAgenda" as SCELUI
participant "EventController" as eC
participant "EventsJpaRepository" as eJR
participant "JpaRepository" as jR
participant "Contact" as C

User -> UI:Select See Agenda button
activate UI

create CLUI
UI -> CLUI:Create()

UI -> CLUI:buttonSeeEvents()

CLUI -> C:contact=(Contact)listContacts.getSelectedValue()

create SCELUI
CLUI -> SCELUI:SeeCompanyAgenda(contact)

create eC
SCELUI -> eC:create()

SCELUI -> eC:showCompanyEvents(contact)

eC -> eJR:getCompanyAgenda(contact)

eJR -> jR:getCompanyAgenda(contact)


@enduml
