@startuml doc-files/lang_01.2_SD.png

    actor User
    participant "<<analysis>>\nCell" as cell
    participant "<<analysis>>\nFormulaCompiler" as formulaComp
    participant "<<analysis>>\nMonetaryExpressionCompiler" as monetaryExpComp

    User -> cell : setContent(content)
    cell -> cell : storeContent(content)
    cell -> formulaComp : formula = compile(cell, content)
    formulaComp -> monetaryExpComp : expression = compile(cell, content)
    monetaryExpComp -> monetaryExpComp : convert(cell, tree)
 

@enduml