@startuml doc-files/lang_04.3_InsertFormulaAdvancedWizard_SequenceDiagram.png
    actor User
    participant "WizardFunctionUI" as ui
    participant "WizardFunctionController" as ctrl
    participant "root: DefaultMutableTreeNode" as node
    participant "tree: JTree" as tree

    User -> ui : selects tree checkbox
    ui -> ui : RunTimeCompiler()

    User -> ui : edits a parameter
    ui -> ui : RunTimeCompiler()
    opt checkbox.isSelected
            ui -> ctrl : ctree = getTreeSource()
            create node
            ui -> node : new(ctree.getText())
            create tree
            ui -> tree : new(root)
            ui-> ctrl : generateTree(ctree,tree)
            ctrl -> tree : root=  getRoot()
            ctrl -> ctrl : walkTree(ctree,root)
            ui -> ui : updateTreeComponents()
    end opt
        
@enduml