@startuml doc-files/SequenceDiagramViewUsers.png
actor User
participant NetworkingGamesPanel
participant "controller:NetworkingGamesController" as controller
participant "userProfile:UserProfile" as userProfile
participant PlayerDetection

User -> NetworkingGamesPanel : clicks on the update button in the side bar to view users in the network
NetworkingGamesPanel -> controller : update()
controller -> PlayerDetection : update()
loop
create userProfile
PlayerDetection -> userProfile : new UserProfile()
PlayerDetection -> controller  : addUser(userProfile) 
end
NetworkingGamesPanel -> NetworkingGamesPanel : repaint()


@enduml