@startuml doc-files/exportation_link_design.png

participant user
participant "ExportAction" as EFA
participant "uiController: UIController" as UIC
participant "e: ExportTextFilePanel" as ETP
participant "chooser: JFileChooser" as JF
participant "file: File" as F
participant "LinkingFileToExport" as LFE
participant "controller: ExportFileController" as cont
participant "fl: FileLink" as FL
participant "ex: ExportThread" as ET
participant "te: Thread" as T
participant "sheet: SpreadSheet" as S
participant "cg: CellChangeListener" as CC
participant "et: expTXT: ExportTXT" as Etxt

activate user
user -> EFA: select Export to TXT File
activate EFA
create ETP
EFA-> ETP: e=create(uiController)
activate ETP
deactivate EFA
user -> ETP: choose the path of the file
create cont
ETP -> cont: controller=create(uiController)
ETP -> UIC: sheet=getActiveSpreadSheet()
create JF
ETP -> JF : chooser=create()
activate JF
ETP -> JF : success=showSaveDialog(null)
ETP -> JF : file=getSelectedFile()
deactivate JF
activate F
ETP -> F : dir=getAbsolutePath() + ".txt"
user -> ETP : insert a separator
opt
user -> ETP : select the header option
end
user -> ETP : select the linked option
user -> ETP : click Export
deactivate user
activate cont
ETP -> cont : exportFile(sheet, file, separator, HeaderLine, linkedOption, headerText)
cont -> LFE : searchFile(sheet, file, separator, headerLine, linkedOption, headerText)
deactivate cont
deactivate ETP
activate LFE
alt if sheets alreads is linked to a file
LFE -> LFE : removeFile(sheet)
end
LFE -> LFE : addFile(sheet, file, headerOption, separator, headerText)
create FL
LFE -> FL : fl=create(sheet, file, headerOption, separator, headerText)
create ET
LFE -> ET : ex=create(fl)
create T
LFE -> T : te=create(ex)
activate T
LFE -> T : start()
deactivate T
activate ET
create CC
ET -> CC : cg=create()
ET -> FL : sheet=getSheet()
activate S
ET -> S : addCellListener(cg)
deactivate S
deactivate LFE
create Etxt
activate Etxt
ET -> Etxt : expTXT=create()
ET -> FL : sep=getSeparator()
ET -> FL : header=getHeader()
ET -> FL : sheet=getSheet()
ET -> FL : file=getFile()
ET -> FL : headerOption=getHeaderOption()
ET -> FL : sheet=getSheet()
ET->Etxt:exportToTxt(sheet,file,headerOption,separator,header)
deactivate Etxt

@enduml
