@startuml doc-files/crm01_1.CreateEventSequenceDiagram.png
participant "UIExtensionEvent" as UI
participant "EventController" as eC
participant "contact: Contact" as C
participant "event: Event" as E
participant "cList: ContactList" as CL


participant "ContactExtension" as cE

create eC
UI-> eC : create()

UI -> eC : clist = contactlist


eC -> CL : clist = getcontactlist

UI -> eC : contact = selectContact

UI -> eC : registerEvent(timestamp,description)

create E
eC -> E: create(timestamp,description)

eC -> C : agendaList

C -> CL : add(event)

@enduml
