@startuml doc-files/cmr01_1.EditContactSequenceDiagram.png
participant "SeeContactsList" as UI
participant "ContactController" as cC
participant "contact: Contact" as C
participant "pic: Picture" as pic
participant "PersistenceContext" as PC
participant "AppSettings" as AS
participant "<<interface>> RepositoryFactory" as RF
participant "ContactsRepository" as CR



create cC
UI -> cC : create()

UI -> cC : clist = getModelList()

UI -> cC : editContact(contact,fN,lN.pic)

cC -> PC :repositories()

cC -> AS :instance()

AS -> AS :getRepositoryFactory()

create CR
RF -> CR: create()

cC -> CR : remove(contact)

@enduml