@startuml doc-files/cmr01_1.EditEventSequenceDiagram.png

participant "UI (por detalhar)" as UI
participant "EventController" as eC
participant "contact: Contact" as C
participant "event: Event" as E
participant "uClone: Event" as uE
participant "ListContactsService" as SCL
participant "ListEventService" as SEL
participant "cList: ContactList" as CL
participant "eList: EventList" as EL


participant "ContactExtension" as cE

UI -> eC : clist = contactlist

eC -> SCL : clist = contactlist

SCL -> CL : clist = getcontactlist

UI -> eC : contact = selectContact

UI -> eC : elist = eventlist

eC -> SEL : elist = eventlist

SEL -> EL : elist = getEventlist

UI -> eC : event = selectEvent


UI -> eC : editEvent(event,timestamp, description)

eC -> E : clone

eC -> uE : defineTimeStamp(timestamp)
eC -> uE : defineDescription(description)


eC -> EL : editEvent(event, uClone)


EL -> EL : remove(event)


EL -> EL : add(event)


@enduml
