@startuml EditPhoneNumber_SequenceDiagram.png

actor User as U
participant "MailAndNumberEditionUI" as UI
participant "NumberController" as eC

participant "number: Number" as M
participant "contact: Contact" as C

participant "PersistenceContext" as PC
participant "AppSettings" as AS

participant "RepositoryFactory" as RF
participant "ContactsRepository" as CR
participant "NumberRepository" as MR


create eC
UI-> eC : create()

UI -> eC : lc =getContacts()

eC -> PC : repositories()

eC -> AS : instance()

AS -> AS : getRepositoryFactory()

create RF
AS -> RF : create()

create CR
RF -> CR : create()

eC -> RF : contacts()

eC -> CR : all()



UI -> U : show contact list

U -> UI : select contact

UI -> U : request data

U -> UI : insert

UI -> eC : editNumber(number,work, home, celular1, celular2)

eC -> C : number()

eC -> M : workNumberIsValid()
eC -> M : homeIsValid()
eC -> M : celular1Valid()
eC -> M : celular2Valid()

eC -> M : defineWorkNumber()
eC -> M : defineHome()
eC -> M : defineCelular1()
eC -> M : defineCelular()

eC -> PC : repositories()

eC -> AS : instance()

AS -> AS : getRepositoryFactory()

eC -> RF : numbers()

create MR
RF -> MR : create()

eC -> MR : updateEditNumber(number,contact)

eC -> PC : repositories()

eC -> AS : instance()

AS -> AS : getRepositoryFactory()

eC -> RF : contacts()

eC -> CR : updateEditContact(contact)

UI -> U : Success

@enduml
