@startuml doc-files/lang04_02_DesignCD.png

    interface Cell{
    }

    class CellImpl{
        +setContent(String text);
    }

    class UIController{
        +Cell getActiveCell();
    }

    class WizardFunctionController{
        +Formula getFormula(String source);
        +void setContent(String source);
        +String getSource(String identifier, String params[]);
        +String getStructure(String identifier);
        +String getHelp(String identifier);
        +int getNumberParameters(String identifier);
        +String[] getFunctionList();
    }

    class Language{
        +Language getInstance();
        +Function[] getFunctions();
        +Function getFunction(String identifier);
        +boolean hasFunction(String identifier);
        +UnaryOperator[] getUnaryOperators();
        +UnaryOperator getUnaryOperator(String identifier);
        +BinaryOperator[] getBinaryOperators();
        +BinaryOperator getBinaryOperator(String identifier);
        +boolean hasBinaryOperator();
        +boolean hasUnaryOperator();
    }

    interface Function{
    }

    class FunctionImpl{
	+String getIdentifier();
	+FunctionParameter[] getParameters();
	+Value applyTo(Expression[] args);
	+boolean isVarArg();
    }

    class FunctionParameter{
	+Value.Type getValueType;
        +boolean isOptional();
        +String getDescription();
    }

    class JDialog{
    }
    
    class WizardDialog{
	+WizardDialog(UIController uiController);
    }


    JDialog <|-- WizardDialog : extends

    WizardFunctionController <.. WizardDialog

    Language <.. WizardFunctionController

    Function <|.. FunctionImpl : implements

    FunctionImpl <.. WizardFunctionController

    FunctionParameter <.. WizardFunctionController

    UIController <.. WizardFunctionController

    Cell <|.. CellImpl : implements

    CellImpl <.. UIController
    
    FunctionImpl *- FunctionParameter
@enduml

