@startuml doc-files/classDiagram_lang8.1.png

class "UIExcention" as uie {
    + UIExtension(Extension extension, UIController uiController)
}

class "MacroWindowUI" as mui {
    +void create(uic UIController)
}

class "ScriptUI" as sui {
    - ScriptController controller
    + Value run(String code)
}

class "ScriptController" as sc{
    - BeanShellInterpreter bsi
    + Value run(String code)
}

class "BeanShellInterpreter" as bsi{
    - UIController uicontroller
    + Value run(String code)
	- boolean voidAssignment(String txtEx)
}

class "UIController" as uic {
    + UIController(CleanSheets app)
    + Workbook getActiveWorkbook()
    + Spreadsheet getActiveSpreadsheet()
    + CleanSheets getApp()
}

interface "SpreadSheet" as sp

class "CleanSheets" as cs {
    + CleanSheets()
    + void create()
}

class "Workbook" as wb {
    + Workbook(int sheets)
}

class "Macro" as m {
    + Macro(String name, Spreadsheet sheet)
    + void addLine(String line) throws FormulaCompilationException
    + Value evaluate() throws IllegalValueTypeException
}


uie --> mui
mui -right-> sui
sui --> sc
sc -right-> bsi
bsi ..> sp
bsi .right.> cs
cs -up-> wb
bsi ..> m
bsi --> uic

@enduml
