@startuml doc-files/window.png

actor "User" as user
participant "uic : UIController" as uic
participant "UIExt : UIExtension" as uie


user -> uie : select macro window
activate uie
create "mp : MacrosPanel" as mui
uie -> mui : create(uic)
deactivate uie
user -> mui : Choose write a script
activate mui
create "sui : ScriptUI" as sui
mui -> sui : create(uic)
deactivate mui


@enduml
