@startuml doc-files/IPC6_01_2_dc.png

class TCPConnection{


}

class ActiveInstancesPanel{


}

class ShareMenu{

}

class StartSharingAction{

}

class StopRealTimeShaaring{

}

class ChangePortAction{


}
@enduml
