@startuml doc-files/cmr01_1.EditEventSequenceDiagram.png

participant "UI (por detalhar)" as UI
participant "EventController" as eC
participant "contact: Contact" as C
participant "event: Event" as E

participant "ListContactsService" as LC
participant "ListEventsService" as LE

participant "PersistenceContext" as PC
participant "AppSettings" as AS
participant "<<interface>> RepositoryFactory" as RF
participant "ContactsRepository" as CR
participant "EventRepository" as ER

create eC
UI -> eC : create()

UI -> eC : getModelList()

create LC
eC-> LC : create()

eC -> LC : cl = allContacts()

eC -> PC :repositories()

eC -> AS :instance()

AS -> AS :getRepositoryFactory()

create CR
RF -> CR: create()

eC -> RF : contacts()

eC -> CR : cl = all()


create LE
eC -> LE : el = allEvents()

eC -> PC :repositories()

eC -> AS :instance()

AS -> AS :getRepositoryFactory()

create ER
RF -> ER: create()

eC -> RF : events()

eC -> ER : el=all()

UI -> eC : editEvent(event,timestamp, description)


@enduml
