@startuml doc-files/cmr01_1.ContactEditionClassDiagram.png

UIExtensionContacts  --> ContactController
SeeContactList  --> ContactController
UIExtensionEvents --> EventController
SeeEventList  --> EventController

ContactList *-- Contact
Agenda *-- Event
Picture <|--  Contact

EventController ..> Contact
EventController ..> Event
EventController ..> ContactList
EventController ..> Agenda

ContactController ..> Contact
ContactController ..> Event
ContactController ..> ContactList
ContactController ..> Agenda

class Contact{
-String firstName
-String lastName
+clone()
+defineFirstname(firstname)
+defineLastName(lastName)
+definePicture(pic)
}

class Event{
-timestamp
-String description
+clone()
+defineTimeStamp(timestamp)
+definePicture(desc
}

class ContactController{
+contactList()
+selectContact()
+editContact(contact,fN,lN,pic)
+registerContact(fN,lN,pic)
+removeContact()
+getModelContactList()
} 

class EventController{
+contactList()
+eventList()
+selectContact()
+selectEvent()
+editEvent(timestamp,desct)
+registerEvent(timestamp,desct)
+removeEvent()
+getModelEventList()
}

class ContactList{
+getContactList()
+add(contact)
+remove(contact)
}

class Agenda{
+getContactList()
+add(contact)
+remove(contact)
}

@enduml
