@startuml doc-files/EditNotes_SequenceDiagram.png

participant User
participant EditNotesUI as UI
participant EditNotesController as CTRL
participant Contact as contact
participant ContactRepository as contactRepository
participant Dialog as dialog

User -> UI : view notes
activate UI
create CTRL
UI -> CTRL  : create()
activate CTRL
CTRL -> contactRepository : getAll()
deactivate CTRL

loop for Contact contact : contacts
activate contact
UI -> contact : getNotes()
deactivate contact
end

UI -> User : show()
deactivate UI

loop
    alt newNote
    activate dialog 
    User -> UI : new Note()
    UI -> dialog : new (controller, contactsList, tree.getSelectionPath())
    User -> dialog : new addNote(note)
    dialog -> contact : addNote(note)
    deactivate dialog
    end

    alt openNote
    activate UI
    User -> UI : open Note()
    activate dialog
    UI -> dialog : new (controller, contactsList, tree.getSelectionPath())
    dialog -> dialog: showAllVersions()
        alt editNote
        User -> dialog : editNote()
        dialog -> CTRL : addVersion(text)
        deactivate dialog
        activate CTRL
        activate contact
        CTRL -> contact : addNote(text)
        contact -> contact : add()
        deactivate contact
        end
    end
    
    alt removeNote
    activate UI
    User -> UI : removeNote()
    activate dialog
    UI -> dialog : new (controller, contactsList, tree.getSelectionPath())
    deactivate UI
    activate contact
    dialog -> contact : removeNote(note)
    deactivate dialog
    contact -> contact : remove()
    deactivate contact
    end
end

 
@enduml
